simulation/qsim/robot_line_follower_fsm.msim.vcd
$comment
	File created using the following command:
		vcd file robot_line_follower_fsm.msim.vcd -direction
$end
$date
	Tue May 12 22:18:35 2026
$end
$version
	ModelSim Version 10.5b
$end
$timescale
	1ps
$end

$scope module block_diagram_v2_vhd_vec_tst $end
$var wire 1 ! clock $end
$var wire 1 " HEX0 [7] $end
$var wire 1 # HEX0 [6] $end
$var wire 1 $ HEX0 [5] $end
$var wire 1 % HEX0 [4] $end
$var wire 1 & HEX0 [3] $end
$var wire 1 ' HEX0 [2] $end
$var wire 1 ( HEX0 [1] $end
$var wire 1 ) HEX0 [0] $end
$var wire 1 * HEX1 [7] $end
$var wire 1 + HEX1 [6] $end
$var wire 1 , HEX1 [5] $end
$var wire 1 - HEX1 [4] $end
$var wire 1 . HEX1 [3] $end
$var wire 1 / HEX1 [2] $end
$var wire 1 0 HEX1 [1] $end
$var wire 1 1 HEX1 [0] $end
$var wire 1 2 HEX2 [7] $end
$var wire 1 3 HEX2 [6] $end
$var wire 1 4 HEX2 [5] $end
$var wire 1 5 HEX2 [4] $end
$var wire 1 6 HEX2 [3] $end
$var wire 1 7 HEX2 [2] $end
$var wire 1 8 HEX2 [1] $end
$var wire 1 9 HEX2 [0] $end
$var wire 1 : leftMotor [1] $end
$var wire 1 ; leftMotor [0] $end
$var wire 1 < leftSensor $end
$var wire 1 = MAX10_CLK1_50 $end
$var wire 1 > reset $end
$var wire 1 ? rightMotor [1] $end
$var wire 1 @ rightMotor [0] $end
$var wire 1 A rightSensor $end
$var wire 1 B state [2] $end
$var wire 1 C state [1] $end
$var wire 1 D state [0] $end

$scope module i1 $end
$var wire 1 E gnd $end
$var wire 1 F vcc $end
$var wire 1 G unknown $end
$var wire 1 H devoe $end
$var wire 1 I devclrn $end
$var wire 1 J devpor $end
$var wire 1 K ww_devoe $end
$var wire 1 L ww_devclrn $end
$var wire 1 M ww_devpor $end
$var wire 1 N ww_HEX0 [7] $end
$var wire 1 O ww_HEX0 [6] $end
$var wire 1 P ww_HEX0 [5] $end
$var wire 1 Q ww_HEX0 [4] $end
$var wire 1 R ww_HEX0 [3] $end
$var wire 1 S ww_HEX0 [2] $end
$var wire 1 T ww_HEX0 [1] $end
$var wire 1 U ww_HEX0 [0] $end
$var wire 1 V ww_rightMotor [1] $end
$var wire 1 W ww_rightMotor [0] $end
$var wire 1 X ww_reset $end
$var wire 1 Y ww_clock $end
$var wire 1 Z ww_leftSensor $end
$var wire 1 [ ww_rightSensor $end
$var wire 1 \ ww_HEX1 [7] $end
$var wire 1 ] ww_HEX1 [6] $end
$var wire 1 ^ ww_HEX1 [5] $end
$var wire 1 _ ww_HEX1 [4] $end
$var wire 1 ` ww_HEX1 [3] $end
$var wire 1 a ww_HEX1 [2] $end
$var wire 1 b ww_HEX1 [1] $end
$var wire 1 c ww_HEX1 [0] $end
$var wire 1 d ww_state [2] $end
$var wire 1 e ww_state [1] $end
$var wire 1 f ww_state [0] $end
$var wire 1 g ww_HEX2 [7] $end
$var wire 1 h ww_HEX2 [6] $end
$var wire 1 i ww_HEX2 [5] $end
$var wire 1 j ww_HEX2 [4] $end
$var wire 1 k ww_HEX2 [3] $end
$var wire 1 l ww_HEX2 [2] $end
$var wire 1 m ww_HEX2 [1] $end
$var wire 1 n ww_HEX2 [0] $end
$var wire 1 o ww_leftMotor [1] $end
$var wire 1 p ww_leftMotor [0] $end
$var wire 1 q ww_MAX10_CLK1_50 $end
$var wire 1 r \inst2|altsyncram_component|auto_generated|ram_block1a0_PORTAADDR_bus\ [1] $end
$var wire 1 s \inst2|altsyncram_component|auto_generated|ram_block1a0_PORTAADDR_bus\ [0] $end
$var wire 1 t \inst2|altsyncram_component|auto_generated|ram_block1a0_PORTADATAOUT_bus\ [17] $end
$var wire 1 u \inst2|altsyncram_component|auto_generated|ram_block1a0_PORTADATAOUT_bus\ [16] $end
$var wire 1 v \inst2|altsyncram_component|auto_generated|ram_block1a0_PORTADATAOUT_bus\ [15] $end
$var wire 1 w \inst2|altsyncram_component|auto_generated|ram_block1a0_PORTADATAOUT_bus\ [14] $end
$var wire 1 x \inst2|altsyncram_component|auto_generated|ram_block1a0_PORTADATAOUT_bus\ [13] $end
$var wire 1 y \inst2|altsyncram_component|auto_generated|ram_block1a0_PORTADATAOUT_bus\ [12] $end
$var wire 1 z \inst2|altsyncram_component|auto_generated|ram_block1a0_PORTADATAOUT_bus\ [11] $end
$var wire 1 { \inst2|altsyncram_component|auto_generated|ram_block1a0_PORTADATAOUT_bus\ [10] $end
$var wire 1 | \inst2|altsyncram_component|auto_generated|ram_block1a0_PORTADATAOUT_bus\ [9] $end
$var wire 1 } \inst2|altsyncram_component|auto_generated|ram_block1a0_PORTADATAOUT_bus\ [8] $end
$var wire 1 ~ \inst2|altsyncram_component|auto_generated|ram_block1a0_PORTADATAOUT_bus\ [7] $end
$var wire 1 !! \inst2|altsyncram_component|auto_generated|ram_block1a0_PORTADATAOUT_bus\ [6] $end
$var wire 1 "! \inst2|altsyncram_component|auto_generated|ram_block1a0_PORTADATAOUT_bus\ [5] $end
$var wire 1 #! \inst2|altsyncram_component|auto_generated|ram_block1a0_PORTADATAOUT_bus\ [4] $end
$var wire 1 $! \inst2|altsyncram_component|auto_generated|ram_block1a0_PORTADATAOUT_bus\ [3] $end
$var wire 1 %! \inst2|altsyncram_component|auto_generated|ram_block1a0_PORTADATAOUT_bus\ [2] $end
$var wire 1 &! \inst2|altsyncram_component|auto_generated|ram_block1a0_PORTADATAOUT_bus\ [1] $end
$var wire 1 '! \inst2|altsyncram_component|auto_generated|ram_block1a0_PORTADATAOUT_bus\ [0] $end
$var wire 1 (! \inst3|altsyncram_component|auto_generated|ram_block1a0_PORTAADDR_bus\ [2] $end
$var wire 1 )! \inst3|altsyncram_component|auto_generated|ram_block1a0_PORTAADDR_bus\ [1] $end
$var wire 1 *! \inst3|altsyncram_component|auto_generated|ram_block1a0_PORTAADDR_bus\ [0] $end
$var wire 1 +! \inst3|altsyncram_component|auto_generated|ram_block1a0_PORTADATAOUT_bus\ [17] $end
$var wire 1 ,! \inst3|altsyncram_component|auto_generated|ram_block1a0_PORTADATAOUT_bus\ [16] $end
$var wire 1 -! \inst3|altsyncram_component|auto_generated|ram_block1a0_PORTADATAOUT_bus\ [15] $end
$var wire 1 .! \inst3|altsyncram_component|auto_generated|ram_block1a0_PORTADATAOUT_bus\ [14] $end
$var wire 1 /! \inst3|altsyncram_component|auto_generated|ram_block1a0_PORTADATAOUT_bus\ [13] $end
$var wire 1 0! \inst3|altsyncram_component|auto_generated|ram_block1a0_PORTADATAOUT_bus\ [12] $end
$var wire 1 1! \inst3|altsyncram_component|auto_generated|ram_block1a0_PORTADATAOUT_bus\ [11] $end
$var wire 1 2! \inst3|altsyncram_component|auto_generated|ram_block1a0_PORTADATAOUT_bus\ [10] $end
$var wire 1 3! \inst3|altsyncram_component|auto_generated|ram_block1a0_PORTADATAOUT_bus\ [9] $end
$var wire 1 4! \inst3|altsyncram_component|auto_generated|ram_block1a0_PORTADATAOUT_bus\ [8] $end
$var wire 1 5! \inst3|altsyncram_component|auto_generated|ram_block1a0_PORTADATAOUT_bus\ [7] $end
$var wire 1 6! \inst3|altsyncram_component|auto_generated|ram_block1a0_PORTADATAOUT_bus\ [6] $end
$var wire 1 7! \inst3|altsyncram_component|auto_generated|ram_block1a0_PORTADATAOUT_bus\ [5] $end
$var wire 1 8! \inst3|altsyncram_component|auto_generated|ram_block1a0_PORTADATAOUT_bus\ [4] $end
$var wire 1 9! \inst3|altsyncram_component|auto_generated|ram_block1a0_PORTADATAOUT_bus\ [3] $end
$var wire 1 :! \inst3|altsyncram_component|auto_generated|ram_block1a0_PORTADATAOUT_bus\ [2] $end
$var wire 1 ;! \inst3|altsyncram_component|auto_generated|ram_block1a0_PORTADATAOUT_bus\ [1] $end
$var wire 1 <! \inst3|altsyncram_component|auto_generated|ram_block1a0_PORTADATAOUT_bus\ [0] $end
$var wire 1 =! \inst1|altsyncram_component|auto_generated|ram_block1a0_PORTAADDR_bus\ [1] $end
$var wire 1 >! \inst1|altsyncram_component|auto_generated|ram_block1a0_PORTAADDR_bus\ [0] $end
$var wire 1 ?! \inst1|altsyncram_component|auto_generated|ram_block1a0_PORTADATAOUT_bus\ [17] $end
$var wire 1 @! \inst1|altsyncram_component|auto_generated|ram_block1a0_PORTADATAOUT_bus\ [16] $end
$var wire 1 A! \inst1|altsyncram_component|auto_generated|ram_block1a0_PORTADATAOUT_bus\ [15] $end
$var wire 1 B! \inst1|altsyncram_component|auto_generated|ram_block1a0_PORTADATAOUT_bus\ [14] $end
$var wire 1 C! \inst1|altsyncram_component|auto_generated|ram_block1a0_PORTADATAOUT_bus\ [13] $end
$var wire 1 D! \inst1|altsyncram_component|auto_generated|ram_block1a0_PORTADATAOUT_bus\ [12] $end
$var wire 1 E! \inst1|altsyncram_component|auto_generated|ram_block1a0_PORTADATAOUT_bus\ [11] $end
$var wire 1 F! \inst1|altsyncram_component|auto_generated|ram_block1a0_PORTADATAOUT_bus\ [10] $end
$var wire 1 G! \inst1|altsyncram_component|auto_generated|ram_block1a0_PORTADATAOUT_bus\ [9] $end
$var wire 1 H! \inst1|altsyncram_component|auto_generated|ram_block1a0_PORTADATAOUT_bus\ [8] $end
$var wire 1 I! \inst1|altsyncram_component|auto_generated|ram_block1a0_PORTADATAOUT_bus\ [7] $end
$var wire 1 J! \inst1|altsyncram_component|auto_generated|ram_block1a0_PORTADATAOUT_bus\ [6] $end
$var wire 1 K! \inst1|altsyncram_component|auto_generated|ram_block1a0_PORTADATAOUT_bus\ [5] $end
$var wire 1 L! \inst1|altsyncram_component|auto_generated|ram_block1a0_PORTADATAOUT_bus\ [4] $end
$var wire 1 M! \inst1|altsyncram_component|auto_generated|ram_block1a0_PORTADATAOUT_bus\ [3] $end
$var wire 1 N! \inst1|altsyncram_component|auto_generated|ram_block1a0_PORTADATAOUT_bus\ [2] $end
$var wire 1 O! \inst1|altsyncram_component|auto_generated|ram_block1a0_PORTADATAOUT_bus\ [1] $end
$var wire 1 P! \inst1|altsyncram_component|auto_generated|ram_block1a0_PORTADATAOUT_bus\ [0] $end
$var wire 1 Q! \~QUARTUS_CREATED_ADC1~_CHSEL_bus\ [4] $end
$var wire 1 R! \~QUARTUS_CREATED_ADC1~_CHSEL_bus\ [3] $end
$var wire 1 S! \~QUARTUS_CREATED_ADC1~_CHSEL_bus\ [2] $end
$var wire 1 T! \~QUARTUS_CREATED_ADC1~_CHSEL_bus\ [1] $end
$var wire 1 U! \~QUARTUS_CREATED_ADC1~_CHSEL_bus\ [0] $end
$var wire 1 V! \~QUARTUS_CREATED_ADC2~_CHSEL_bus\ [4] $end
$var wire 1 W! \~QUARTUS_CREATED_ADC2~_CHSEL_bus\ [3] $end
$var wire 1 X! \~QUARTUS_CREATED_ADC2~_CHSEL_bus\ [2] $end
$var wire 1 Y! \~QUARTUS_CREATED_ADC2~_CHSEL_bus\ [1] $end
$var wire 1 Z! \~QUARTUS_CREATED_ADC2~_CHSEL_bus\ [0] $end
$var wire 1 [! \clock~inputclkctrl_INCLK_bus\ [3] $end
$var wire 1 \! \clock~inputclkctrl_INCLK_bus\ [2] $end
$var wire 1 ]! \clock~inputclkctrl_INCLK_bus\ [1] $end
$var wire 1 ^! \clock~inputclkctrl_INCLK_bus\ [0] $end
$var wire 1 _! \MAX10_CLK1_50~input_o\ $end
$var wire 1 `! \~QUARTUS_CREATED_UNVM~~busy\ $end
$var wire 1 a! \~QUARTUS_CREATED_ADC1~~eoc\ $end
$var wire 1 b! \~QUARTUS_CREATED_ADC2~~eoc\ $end
$var wire 1 c! \HEX0[7]~output_o\ $end
$var wire 1 d! \HEX0[6]~output_o\ $end
$var wire 1 e! \HEX0[5]~output_o\ $end
$var wire 1 f! \HEX0[4]~output_o\ $end
$var wire 1 g! \HEX0[3]~output_o\ $end
$var wire 1 h! \HEX0[2]~output_o\ $end
$var wire 1 i! \HEX0[1]~output_o\ $end
$var wire 1 j! \HEX0[0]~output_o\ $end
$var wire 1 k! \rightMotor[1]~output_o\ $end
$var wire 1 l! \rightMotor[0]~output_o\ $end
$var wire 1 m! \HEX1[7]~output_o\ $end
$var wire 1 n! \HEX1[6]~output_o\ $end
$var wire 1 o! \HEX1[5]~output_o\ $end
$var wire 1 p! \HEX1[4]~output_o\ $end
$var wire 1 q! \HEX1[3]~output_o\ $end
$var wire 1 r! \HEX1[2]~output_o\ $end
$var wire 1 s! \HEX1[1]~output_o\ $end
$var wire 1 t! \HEX1[0]~output_o\ $end
$var wire 1 u! \state[2]~output_o\ $end
$var wire 1 v! \state[1]~output_o\ $end
$var wire 1 w! \state[0]~output_o\ $end
$var wire 1 x! \HEX2[7]~output_o\ $end
$var wire 1 y! \HEX2[6]~output_o\ $end
$var wire 1 z! \HEX2[5]~output_o\ $end
$var wire 1 {! \HEX2[4]~output_o\ $end
$var wire 1 |! \HEX2[3]~output_o\ $end
$var wire 1 }! \HEX2[2]~output_o\ $end
$var wire 1 ~! \HEX2[1]~output_o\ $end
$var wire 1 !" \HEX2[0]~output_o\ $end
$var wire 1 "" \leftMotor[1]~output_o\ $end
$var wire 1 #" \leftMotor[0]~output_o\ $end
$var wire 1 $" \clock~input_o\ $end
$var wire 1 %" \clock~inputclkctrl_outclk\ $end
$var wire 1 &" \leftSensor~input_o\ $end
$var wire 1 '" \reset~input_o\ $end
$var wire 1 (" \rightSensor~input_o\ $end
$var wire 1 )" \inst|reg_fstate.turningRight~2_combout\ $end
$var wire 1 *" \inst|reg_fstate.stationary~1_combout\ $end
$var wire 1 +" \inst|reg_fstate.straightLine~0_combout\ $end
$var wire 1 ," \inst|fstate.straightLine~q\ $end
$var wire 1 -" \inst|reg_fstate.turningLeft~3_combout\ $end
$var wire 1 ." \inst|reg_fstate.turningLeft~2_combout\ $end
$var wire 1 /" \inst|reg_fstate.turningLeft~4_combout\ $end
$var wire 1 0" \inst|fstate.turningLeft~q\ $end
$var wire 1 1" \inst|reg_fstate~2_combout\ $end
$var wire 1 2" \inst|reg_fstate.searchLeft~0_combout\ $end
$var wire 1 3" \inst8|LPM_COUNTER_component|auto_generated|counter_comb_bita0~combout\ $end
$var wire 1 4" \~GND~combout\ $end
$var wire 1 5" \inst8|LPM_COUNTER_component|auto_generated|counter_comb_bita0~COUT\ $end
$var wire 1 6" \inst8|LPM_COUNTER_component|auto_generated|counter_comb_bita1~combout\ $end
$var wire 1 7" \inst8|LPM_COUNTER_component|auto_generated|counter_comb_bita1~COUT\ $end
$var wire 1 8" \inst8|LPM_COUNTER_component|auto_generated|counter_comb_bita2~combout\ $end
$var wire 1 9" \inst8|LPM_COUNTER_component|auto_generated|counter_comb_bita2~COUT\ $end
$var wire 1 :" \inst8|LPM_COUNTER_component|auto_generated|counter_comb_bita3~combout\ $end
$var wire 1 ;" \inst|reg_fstate.stationary~0_combout\ $end
$var wire 1 <" \inst|reg_fstate.searchLeft~1_combout\ $end
$var wire 1 =" \inst|reg_fstate.searchLeft~2_combout\ $end
$var wire 1 >" \inst|fstate.searchLeft~q\ $end
$var wire 1 ?" \inst|reg_fstate.searchRight~0_combout\ $end
$var wire 1 @" \inst|reg_fstate.searchRight~1_combout\ $end
$var wire 1 A" \inst|reg_fstate.searchRight~2_combout\ $end
$var wire 1 B" \inst|fstate.searchRight~q\ $end
$var wire 1 C" \inst|reg_fstate.stationary~2_combout\ $end
$var wire 1 D" \inst|reg_fstate.stationary~3_combout\ $end
$var wire 1 E" \inst|fstate.stationary~q\ $end
$var wire 1 F" \inst|reg_fstate.turningRight~3_combout\ $end
$var wire 1 G" \inst|reg_fstate.turningRight~4_combout\ $end
$var wire 1 H" \inst|fstate.turningRight~q\ $end
$var wire 1 I" \inst|rightMotorBit0~0_combout\ $end
$var wire 1 J" \inst|rightMotorBit1~0_combout\ $end
$var wire 1 K" \inst|stateBit0~0_combout\ $end
$var wire 1 L" \inst|stateBit1~0_combout\ $end
$var wire 1 M" \inst|stateBit2~0_combout\ $end
$var wire 1 N" \inst|leftMotorBit0~0_combout\ $end
$var wire 1 O" \inst|leftMotorBit1~0_combout\ $end
$var wire 1 P" \inst2|altsyncram_component|auto_generated|q_a\ [7] $end
$var wire 1 Q" \inst2|altsyncram_component|auto_generated|q_a\ [6] $end
$var wire 1 R" \inst2|altsyncram_component|auto_generated|q_a\ [5] $end
$var wire 1 S" \inst2|altsyncram_component|auto_generated|q_a\ [4] $end
$var wire 1 T" \inst2|altsyncram_component|auto_generated|q_a\ [3] $end
$var wire 1 U" \inst2|altsyncram_component|auto_generated|q_a\ [2] $end
$var wire 1 V" \inst2|altsyncram_component|auto_generated|q_a\ [1] $end
$var wire 1 W" \inst2|altsyncram_component|auto_generated|q_a\ [0] $end
$var wire 1 X" \inst3|altsyncram_component|auto_generated|q_a\ [7] $end
$var wire 1 Y" \inst3|altsyncram_component|auto_generated|q_a\ [6] $end
$var wire 1 Z" \inst3|altsyncram_component|auto_generated|q_a\ [5] $end
$var wire 1 [" \inst3|altsyncram_component|auto_generated|q_a\ [4] $end
$var wire 1 \" \inst3|altsyncram_component|auto_generated|q_a\ [3] $end
$var wire 1 ]" \inst3|altsyncram_component|auto_generated|q_a\ [2] $end
$var wire 1 ^" \inst3|altsyncram_component|auto_generated|q_a\ [1] $end
$var wire 1 _" \inst3|altsyncram_component|auto_generated|q_a\ [0] $end
$var wire 1 `" \inst1|altsyncram_component|auto_generated|q_a\ [7] $end
$var wire 1 a" \inst1|altsyncram_component|auto_generated|q_a\ [6] $end
$var wire 1 b" \inst1|altsyncram_component|auto_generated|q_a\ [5] $end
$var wire 1 c" \inst1|altsyncram_component|auto_generated|q_a\ [4] $end
$var wire 1 d" \inst1|altsyncram_component|auto_generated|q_a\ [3] $end
$var wire 1 e" \inst1|altsyncram_component|auto_generated|q_a\ [2] $end
$var wire 1 f" \inst1|altsyncram_component|auto_generated|q_a\ [1] $end
$var wire 1 g" \inst1|altsyncram_component|auto_generated|q_a\ [0] $end
$var wire 1 h" \inst8|LPM_COUNTER_component|auto_generated|counter_reg_bit\ [3] $end
$var wire 1 i" \inst8|LPM_COUNTER_component|auto_generated|counter_reg_bit\ [2] $end
$var wire 1 j" \inst8|LPM_COUNTER_component|auto_generated|counter_reg_bit\ [1] $end
$var wire 1 k" \inst8|LPM_COUNTER_component|auto_generated|counter_reg_bit\ [0] $end
$upscope $end
$upscope $end
$enddefinitions $end
#0
$dumpvars
0!
1<
x=
0>
1A
0E
1F
xG
1H
1I
1J
1K
1L
1M
0X
0Y
1Z
1[
xq
x_!
z`!
za!
zb!
0c!
0d!
0e!
0f!
0g!
0h!
0i!
0j!
1k!
0l!
0m!
0n!
0o!
0p!
0q!
0r!
0s!
0t!
1u!
1v!
1w!
0x!
0y!
0z!
0{!
0|!
0}!
0~!
0!"
1""
0#"
0$"
0%"
1&"
0'"
1("
0)"
1*"
0+"
0,"
1-"
0."
0/"
00"
11"
02"
13"
04"
05"
06"
17"
08"
09"
0:"
0;"
0<"
0="
0>"
0?"
0@"
0A"
0B"
0C"
0D"
0E"
1F"
0G"
0H"
0I"
1J"
1K"
1L"
1M"
0N"
1O"
0N
0O
0P
0Q
0R
0S
0T
0U
1V
0W
0\
0]
0^
0_
0`
0a
0b
0c
1d
1e
1f
0g
0h
0i
0j
0k
0l
0m
0n
1o
0p
0t
0u
0v
0w
0x
0y
0z
0{
0|
0}
0~
0!!
0"!
0#!
0$!
0%!
0&!
0'!
0+!
0,!
0-!
0.!
0/!
00!
01!
02!
03!
04!
05!
06!
07!
08!
09!
0:!
0;!
0<!
0?!
0@!
0A!
0B!
0C!
0D!
0E!
0F!
0G!
0H!
0I!
0J!
0K!
0L!
0M!
0N!
0O!
0P!
0P"
0Q"
0R"
0S"
0T"
0U"
0V"
0W"
0X"
0Y"
0Z"
0["
0\"
0]"
0^"
0_"
0`"
0a"
0b"
0c"
0d"
0e"
0f"
0g"
0h"
0i"
0j"
0k"
1[!
1\!
1]!
0^!
0Q!
0R!
0S!
0T!
0U!
0V!
0W!
0X!
0Y!
0Z!
0"
0#
0$
0%
0&
0'
0(
0)
0*
0+
0,
0-
0.
0/
00
01
02
03
04
05
06
07
08
09
1:
0;
1?
0@
1B
1C
1D
1r
0s
1(!
1)!
1*!
1=!
0>!
$end
#10000
1!
1Y
1$"
1^!
1%"
#20000
0!
0A
0Y
0[
0("
0$"
0^!
1+"
1/"
1?"
0F"
0%"
#30000
1!
1Y
1$"
1^!
1%"
1,"
10"
1."
0K"
0M"
1N"
0-"
0O"
0*!
0(!
1>!
0=!
0""
1#"
0u!
0w!
0o
1p
0d
0f
1;
0:
0D
0B
#40000
0!
1A
0Y
1[
1("
0$"
0^!
0+"
0."
0?"
0/"
0%"
#50000
1!
1Y
1$"
1^!
1%"
0,"
00"
1K"
1M"
0N"
1-"
1F"
1O"
1*!
1(!
0>!
1=!
1""
0#"
1u!
1w!
1o
0p
1d
1f
0;
1:
1D
1B
#60000
0!
0<
0Y
0Z
0&"
0$"
0^!
1+"
0-"
12"
1G"
0%"
#70000
1!
1Y
1$"
1^!
1%"
1,"
1H"
1)"
1I"
0L"
0M"
0F"
0J"
1s
0r
0)!
0(!
0k!
0u!
0v!
1l!
0V
0d
0e
1W
1@
0?
0C
0B
#80000
0!
1<
0Y
1Z
1&"
0$"
0^!
0)"
0+"
02"
0G"
0%"
#90000
1!
1Y
1$"
1^!
1%"
0,"
0H"
0I"
1L"
1M"
1-"
1F"
1J"
0s
1r
1)!
1(!
1k!
1u!
1v!
0l!
1V
1d
1e
0W
0@
1?
1C
1B
#100000
0!
0<
0Y
0Z
0&"
0$"
0^!
1+"
0-"
12"
1G"
0%"
#110000
1!
1Y
1$"
1^!
1%"
1,"
1H"
1)"
1I"
0L"
0M"
0F"
0J"
1s
0r
0)!
0(!
0k!
0u!
0v!
1l!
0V
0d
0e
1W
1@
0?
0C
0B
#120000
0!
0A
0Y
0[
0("
0$"
0^!
0)"
0*"
01"
1?"
1A"
0G"
0%"
#130000
1!
1Y
1$"
1^!
1%"
1k"
1B"
0H"
0A"
0I"
1M"
0O"
1@"
1N"
03"
15"
0s
1(!
1>!
0=!
1#"
0""
1u!
0l!
16"
1A"
1p
0o
1d
0W
1;
0:
1B
0@
#140000
0!
1A
0Y
1[
1("
0$"
0^!
1*"
11"
0?"
1F"
1G"
0@"
0%"
0A"
#150000
1!
1Y
1$"
1^!
1%"
0k"
0B"
1H"
1)"
1I"
0M"
1O"
0F"
0N"
13"
05"
1s
0(!
0>!
1=!
0#"
1""
0u!
1l!
06"
0p
1o
0d
1W
0;
1:
0B
1@
#160000
0!
1<
0Y
1Z
1&"
0$"
0^!
0)"
0+"
02"
0G"
0%"
#170000
1!
1Y
1$"
1^!
1%"
0,"
0H"
0I"
1L"
1M"
1-"
1F"
1J"
0s
1r
1)!
1(!
1k!
1u!
1v!
0l!
1V
1d
1e
0W
0@
1?
1C
1B
#180000
0!
0A
0Y
0[
0("
0$"
0^!
1+"
1/"
1?"
0F"
0%"
#190000
1!
1Y
1$"
1^!
1%"
1,"
10"
1."
0K"
0M"
1N"
0-"
0O"
0*!
0(!
1>!
0=!
0""
1#"
0u!
0w!
0o
1p
0d
0f
1;
0:
0D
0B
#200000
0!
0<
0Y
0Z
0&"
0$"
0^!
0*"
0."
01"
12"
1="
0/"
0%"
#210000
1!
1Y
1$"
1^!
1%"
00"
1k"
1>"
1<"
1I"
03"
15"
0="
0J"
1M"
0N"
1s
0r
1(!
0>!
0#"
1u!
0k!
1l!
16"
1="
0p
1d
0V
1W
0;
1B
1@
0?
#220000
0!
0Y
0$"
0^!
0%"
#230000
1!
1Y
1$"
1^!
1%"
0k"
1j"
06"
07"
13"
05"
16"
17"
18"
08"
#240000
0!
0Y
0$"
0^!
0%"
#250000
1!
1Y
1$"
1^!
1%"
1k"
03"
15"
06"
07"
18"
#260000
0!
0Y
0$"
0^!
0%"
#270000
1!
1Y
1$"
1^!
1%"
0k"
0j"
1i"
08"
19"
16"
17"
13"
05"
06"
18"
09"
1:"
0:"
#280000
0!
0Y
0$"
0^!
0%"
#290000
1!
1Y
1$"
1^!
1%"
1k"
03"
15"
16"
#300000
0!
0Y
0$"
0^!
0%"
#310000
1!
1Y
1$"
1^!
1%"
0k"
1j"
06"
07"
13"
05"
16"
17"
08"
19"
1:"
18"
09"
0:"
#320000
0!
0Y
0$"
0^!
0%"
#330000
1!
1Y
1$"
1^!
1%"
1k"
03"
15"
06"
07"
08"
19"
1:"
#340000
0!
0Y
0$"
0^!
0%"
#350000
1!
1Y
1$"
1^!
1%"
0k"
0j"
0i"
1h"
0:"
18"
09"
16"
17"
13"
05"
06"
08"
1:"
#360000
0!
0Y
0$"
0^!
0%"
#370000
1!
1Y
1$"
1^!
1%"
1k"
03"
15"
16"
#380000
0!
0Y
0$"
0^!
0%"
#390000
1!
1Y
1$"
1^!
1%"
0k"
1j"
06"
07"
13"
05"
1;"
0<"
1C"
16"
17"
18"
08"
1D"
0="
#400000
0!
0Y
0$"
0^!
0%"
#410000
1!
1Y
1$"
1^!
1%"
1k"
0>"
1E"
0L"
0M"
0C"
0I"
03"
15"
0;"
0)!
0(!
0s
0l!
0u!
0v!
06"
07"
0W
0d
0e
18"
0@
0C
0B
#420000
0!
0Y
0$"
0^!
0%"
#430000
1!
1Y
1$"
1^!
1%"
0k"
0j"
1i"
08"
19"
16"
17"
13"
05"
06"
18"
09"
0:"
1:"
#440000
0!
0Y
0$"
0^!
0%"
#450000
1!
1Y
1$"
1^!
1%"
1k"
03"
15"
16"
#460000
0!
0Y
0$"
0^!
0%"
#470000
1!
1Y
1$"
1^!
1%"
0k"
1j"
06"
07"
13"
05"
16"
17"
08"
19"
0:"
18"
09"
1:"
#480000
0!
0Y
0$"
0^!
0%"
#490000
1!
1Y
1$"
1^!
1%"
1k"
03"
15"
06"
07"
08"
19"
0:"
#500000
0!
0Y
0$"
0^!
0%"
#510000
1!
1Y
1$"
1^!
1%"
0k"
0j"
0i"
0h"
1:"
18"
09"
16"
17"
13"
05"
06"
08"
0:"
#520000
0!
0Y
0$"
0^!
0%"
#530000
1!
1Y
1$"
1^!
1%"
1k"
03"
15"
16"
#540000
0!
0Y
0$"
0^!
0%"
#550000
1!
1Y
1$"
1^!
1%"
0k"
1j"
06"
07"
13"
05"
16"
17"
18"
08"
#560000
0!
0Y
0$"
0^!
0%"
#570000
1!
1Y
1$"
1^!
1%"
1k"
03"
15"
06"
07"
18"
#580000
0!
0Y
0$"
0^!
0%"
#590000
1!
1Y
1$"
1^!
1%"
0k"
0j"
1i"
08"
19"
16"
17"
13"
05"
06"
18"
09"
1:"
0:"
#600000
0!
0Y
0$"
0^!
0%"
#610000
1!
1Y
1$"
1^!
1%"
1k"
03"
15"
16"
#620000
0!
0Y
0$"
0^!
0%"
#630000
1!
1Y
1$"
1^!
1%"
0k"
1j"
06"
07"
13"
05"
16"
17"
08"
19"
1:"
18"
09"
0:"
#640000
0!
0Y
0$"
0^!
0%"
#650000
1!
1Y
1$"
1^!
1%"
1k"
03"
15"
06"
07"
08"
19"
1:"
#660000
0!
0Y
0$"
0^!
0%"
#670000
1!
1Y
1$"
1^!
1%"
0k"
0j"
0i"
1h"
0:"
18"
09"
16"
17"
13"
05"
06"
08"
1:"
#680000
0!
0Y
0$"
0^!
0%"
#690000
1!
1Y
1$"
1^!
1%"
1k"
03"
15"
16"
#700000
0!
0Y
0$"
0^!
0%"
#710000
1!
1Y
1$"
1^!
1%"
0k"
1j"
06"
07"
13"
05"
1;"
16"
17"
18"
08"
#720000
0!
0Y
0$"
0^!
0%"
#730000
1!
1Y
1$"
1^!
1%"
1k"
03"
15"
0;"
06"
07"
18"
#740000
0!
0Y
0$"
0^!
0%"
#750000
1!
1Y
1$"
1^!
1%"
0k"
0j"
1i"
08"
19"
16"
17"
13"
05"
06"
18"
09"
0:"
1:"
#760000
0!
0Y
0$"
0^!
0%"
#770000
1!
1Y
1$"
1^!
1%"
1k"
03"
15"
16"
#780000
0!
0Y
0$"
0^!
0%"
#790000
1!
1Y
1$"
1^!
1%"
0k"
1j"
06"
07"
13"
05"
16"
17"
08"
19"
0:"
18"
09"
1:"
#800000
0!
0Y
0$"
0^!
0%"
#810000
1!
1Y
1$"
1^!
1%"
1k"
03"
15"
06"
07"
08"
19"
0:"
#820000
0!
0Y
0$"
0^!
0%"
#830000
1!
1Y
1$"
1^!
1%"
0k"
0j"
0i"
0h"
1:"
18"
09"
16"
17"
13"
05"
06"
08"
0:"
#840000
0!
0Y
0$"
0^!
0%"
#850000
1!
1Y
1$"
1^!
1%"
1k"
03"
15"
16"
#860000
0!
0Y
0$"
0^!
0%"
#870000
1!
1Y
1$"
1^!
1%"
0k"
1j"
06"
07"
13"
05"
16"
17"
18"
08"
#880000
0!
0Y
0$"
0^!
0%"
#890000
1!
1Y
1$"
1^!
1%"
1k"
03"
15"
06"
07"
18"
#900000
0!
0Y
0$"
0^!
0%"
#910000
1!
1Y
1$"
1^!
1%"
0k"
0j"
1i"
08"
19"
16"
17"
13"
05"
06"
18"
09"
1:"
0:"
#920000
0!
0Y
0$"
0^!
0%"
#930000
1!
1Y
1$"
1^!
1%"
1k"
03"
15"
16"
#940000
0!
0Y
0$"
0^!
0%"
#950000
1!
1Y
1$"
1^!
1%"
0k"
1j"
06"
07"
13"
05"
16"
17"
08"
19"
1:"
18"
09"
0:"
#960000
0!
0Y
0$"
0^!
0%"
#970000
1!
1Y
1$"
1^!
1%"
1k"
03"
15"
06"
07"
08"
19"
1:"
#980000
0!
0Y
0$"
0^!
0%"
